{
  "content": [
    {
      "vocabId": 37908,
      "word": "function",
      "pos": "noun",
      "phoneUs": "/ˈfʌŋkʃn/",
      "phoneUk": "/ˈfʌŋkʃn/",
      "audioUs": "https://www.oxfordlearnersdictionaries.com/media/english/us_pron/f/fun/funct/function__us_4.mp3",
      "audioUk": "https://www.oxfordlearnersdictionaries.com/media/english/uk_pron/f/fun/funct/function__gb_2.mp3",
      "level": 1,
      "lastLearning": null,
      "studyTime": "12-12-2023 09:26:07",
      "definition": {
        "defId": 14812,
        "wordDesc": "a vaguely specified social event",
        "examples": "the party was quite an affair"
      }
    },
    {
      "vocabId": 37908,
      "word": "function",
      "pos": "noun",
      "phoneUs": "/ˈfʌŋkʃn/",
      "phoneUk": "/ˈfʌŋkʃn/",
      "audioUs": "https://www.oxfordlearnersdictionaries.com/media/english/us_pron/f/fun/funct/function__us_4.mp3",
      "audioUk": "https://www.oxfordlearnersdictionaries.com/media/english/uk_pron/f/fun/funct/function__gb_2.mp3",
      "level": 1,
      "lastLearning": null,
      "studyTime": "12-12-2023 09:26:07",
      "definition": {
        "defId": 43739,
        "wordDesc": "the actions and activities assigned to or required or expected of a person or group",
        "examples": "the function of a teacher"
      }
    },
    {
      "vocabId": 51874,
      "word": "interest",
      "pos": "noun",
      "phoneUs": "/ˈɪntrəst/",
      "phoneUk": "/ˈɪntrəst/",
      "audioUs": "https://www.oxfordlearnersdictionaries.com/media/english/us_pron/i/int/inter/interest__us_1_rr.mp3",
      "audioUk": "https://www.oxfordlearnersdictionaries.com/media/english/uk_pron/i/int/inter/interest__gb_1.mp3",
      "level": 1,
      "lastLearning": null,
      "studyTime": "12-12-2023 09:26:07",
      "definition": {
        "defId": 56791,
        "wordDesc": "a diversion that occupies one's time and thoughts (usually pleasantly)",
        "examples": null
      }
    },
    {
      "vocabId": 51874,
      "word": "interest",
      "pos": "noun",
      "phoneUs": "/ˈɪntrəst/",
      "phoneUk": "/ˈɪntrəst/",
      "audioUs": "https://www.oxfordlearnersdictionaries.com/media/english/us_pron/i/int/inter/interest__us_1_rr.mp3",
      "audioUk": "https://www.oxfordlearnersdictionaries.com/media/english/uk_pron/i/int/inter/interest__gb_1.mp3",
      "level": 1,
      "lastLearning": null,
      "studyTime": "12-12-2023 09:26:07",
      "definition": {
        "defId": 56794,
        "wordDesc": "a reason for wanting something done",
        "examples": null
      }
    },
    {
      "vocabId": 51874,
      "word": "interest",
      "pos": "noun",
      "phoneUs": "/ˈɪntrəst/",
      "phoneUk": "/ˈɪntrəst/",
      "audioUs": "https://www.oxfordlearnersdictionaries.com/media/english/us_pron/i/int/inter/interest__us_1_rr.mp3",
      "audioUk": "https://www.oxfordlearnersdictionaries.com/media/english/uk_pron/i/int/inter/interest__gb_1.mp3",
      "level": 1,
      "lastLearning": null,
      "studyTime": "12-12-2023 09:26:07",
      "definition": {
        "defId": 56795,
        "wordDesc": "the power of attracting or holding one's attention (because it is unusual or exciting etc.)",
        "examples": "they said nothing of great interest"
      }
    },
    {
      "vocabId": 51875,
      "word": "interest",
      "pos": "verb",
      "phoneUs": "/ˈɪntrəst/",
      "phoneUk": "/ˈɪntrəst/",
      "audioUs": "https://www.oxfordlearnersdictionaries.com/media/english/us_pron/i/int/inter/interest__us_1_rr.mp3",
      "audioUk": "https://www.oxfordlearnersdictionaries.com/media/english/uk_pron/i/int/inter/interest__gb_1.mp3",
      "level": 1,
      "lastLearning": null,
      "studyTime": "12-12-2023 09:26:07",
      "definition": {
        "defId": 56807,
        "wordDesc": "excite the curiosity of",
        "examples": "engage the interest of"
      }
    },
    {
      "vocabId": 51875,
      "word": "interest",
      "pos": "verb",
      "phoneUs": "/ˈɪntrəst/",
      "phoneUk": "/ˈɪntrəst/",
      "audioUs": "https://www.oxfordlearnersdictionaries.com/media/english/us_pron/i/int/inter/interest__us_1_rr.mp3",
      "audioUk": "https://www.oxfordlearnersdictionaries.com/media/english/uk_pron/i/int/inter/interest__gb_1.mp3",
      "level": 1,
      "lastLearning": null,
      "studyTime": "12-12-2023 09:26:07",
      "definition": {
        "defId": 56810,
        "wordDesc": "be on the mind of",
        "examples": null
      }
    },
    {
      "vocabId": 51875,
      "word": "interest",
      "pos": "verb",
      "phoneUs": "/ˈɪntrəst/",
      "phoneUk": "/ˈɪntrəst/",
      "audioUs": "https://www.oxfordlearnersdictionaries.com/media/english/us_pron/i/int/inter/interest__us_1_rr.mp3",
      "audioUk": "https://www.oxfordlearnersdictionaries.com/media/english/uk_pron/i/int/inter/interest__gb_1.mp3",
      "level": 1,
      "lastLearning": null,
      "studyTime": "12-12-2023 09:26:07",
      "definition": {
        "defId": 56811,
        "wordDesc": "be of importance or consequence",
        "examples": null
      }
    },
    {
      "vocabId": 83097,
      "word": "record",
      "pos": "noun",
      "phoneUs": "/ˈrekərd/",
      "phoneUk": "/ˈrekɔːd/",
      "audioUs": "https://www.oxfordlearnersdictionaries.com/media/english/us_pron/r/rec/recor/record__us_1.mp3",
      "audioUk": "https://www.oxfordlearnersdictionaries.com/media/english/uk_pron/r/rec/recor/record__gb_3.mp3",
      "level": 1,
      "lastLearning": null,
      "studyTime": "12-12-2023 09:26:07",
      "definition": {
        "defId": 12418,
        "wordDesc": "a compilation of the known facts regarding something or someone",
        "examples": "I made sure to read the book on my business rival before the meeting."
      }
    },
    {
      "vocabId": 83097,
      "word": "record",
      "pos": "noun",
      "phoneUs": "/ˈrekərd/",
      "phoneUk": "/ˈrekɔːd/",
      "audioUs": "https://www.oxfordlearnersdictionaries.com/media/english/us_pron/r/rec/recor/record__us_1.mp3",
      "audioUk": "https://www.oxfordlearnersdictionaries.com/media/english/uk_pron/r/rec/recor/record__gb_3.mp3",
      "level": 1,
      "lastLearning": null,
      "studyTime": "12-12-2023 09:26:07",
      "definition": {
        "defId": 23772,
        "wordDesc": "a list of crimes for which an accused person has been previously convicted",
        "examples": "The judge ruled that the criminal record of the defendant could not be disclosed to the court."
      }
    }
  ],
  "pageable": {
    "pageNumber": 0,
    "pageSize": 10,
    "sort": {
      "empty": true,
      "sorted": false,
      "unsorted": true
    },
    "offset": 0,
    "paged": true,
    "unpaged": false
  },
  "totalPages": 2,
  "totalElements": 16,
  "last": false,
  "size": 10,
  "number": 0,
  "sort": {
    "empty": true,
    "sorted": false,
    "unsorted": true
  },
  "numberOfElements": 10,
  "first": true,
  "empty": false
}
